…
``` r
# Comparison distribution over time
y = sapply(seq.Date(as.Date("2010-01-01"), as.Date("2019-12-01"), "month"), 
           function(i) {
             data.frame(TYPE = factor(sample(LETTERS[1:length(p)], 500, replace = TRUE, prob = p))) %>% mutate(DATE = i)
           }, 
    simplify = FALSE) %>% 
  bind_rows() %>% 
  group_by(DATE, TYPE, .drop = FALSE) %>% 
  summarise(VALUE = n(), .groups = "keep") %>% 
  ungroup()

y
#> # A tibble: 720 x 3
#>    DATE       TYPE  VALUE
#>    <date>     <fct> <int>
#>  1 2010-01-01 A        56
#>  2 2010-01-01 B       105
#>  3 2010-01-01 C       244
#>  4 2010-01-01 D        26
#>  5 2010-01-01 E        25
#>  6 2010-01-01 F        44
#>  7 2010-02-01 A        50
#>  8 2010-02-01 B       104
#>  9 2010-02-01 C       241
#> 10 2010-02-01 D        22
#> # ... with 710 more rows
```
…
